plugin.tx_ttbase >
plugin.tx_ttbase {
    js {
        1 = http://code.jquery.com/jquery.min.js
	10 = fileadmin/templates/js/scripts.js
	
        
    }
    css {

        1 = fileadmin/templates/css/styles.css
    }

}

[PIDinRootline = 18]
    plugin.tx_ttbase {
        js {
            10 >
            2 = fileadmin/templates/js/yoxview/yox.js
            3 = fileadmin/templates/js/yoxview/yoxview-init.js
            10 = fileadmin/templates/js/scripts.js
        }
    }
[end]




